{
    "MG_USER": "tv",
    "MG_PWD": "tv",
    "MG_HOST": "127.0.0.1",
    "MG_PORT": "27017",
    "MG_DB": "tv-compositions",
    "MG_OPT": "",

    "SERV_ADDRESS": "127.0.0.1",
    "SERV_PORT": "8080",

    "COMPOSITIONS_ADDRESS": "https://127.0.0.1:8081",
    "TV_UPDATE_ROUTE": "/composition"
}
